%YAML 1.1
%TAG !u! tag:unity3d.com,2011:
--- !u!74 &7400000
AnimationClip:
  m_ObjectHideFlags: 0
  m_PrefabParentObject: {fileID: 0}
  m_PrefabInternal: {fileID: 0}
  m_Name: walkBat
  serializedVersion: 4
  m_AnimationType: 2
  m_Compressed: 0
  m_UseHighQualityCurve: 1
  m_RotationCurves: []
  m_CompressedRotationCurves: []
  m_PositionCurves: []
  m_ScaleCurves: []
  m_FloatCurves: []
  m_PPtrCurves:
  - curve:
    - time: 0
      value: {fileID: 21300000, guid: a16a0410eb8eb58498e5d3ed72553a3b, type: 3}
    - time: .150000006
      value: {fileID: 21300000, guid: ab18c5a6d5c34d34889d23739483c1fa, type: 3}
    - time: .316666663
      value: {fileID: 21300000, guid: 0f8ba829b9189354ab6ba9fb92a7641e, type: 3}
    - time: .483333319
      value: {fileID: 21300000, guid: ff9061aebabc96f4098e0dbafaaf38aa, type: 3}
    - time: .649999976
      value: {fileID: 21300000, guid: 8f2fc35d8df2da3429c1c07316f38e18, type: 3}
    - time: .816666663
      value: {fileID: 21300000, guid: 3b5e0b5d3a03eb3448bdbfffb1d99d1c, type: 3}
    - time: .983333349
      value: {fileID: 21300000, guid: 64985bb7b9495d34981e32774809ae6b, type: 3}
    - time: 1.14999998
      value: {fileID: 21300000, guid: eed3f81c6cf3c98429e837c9a0c43f52, type: 3}
    attribute: m_Sprite
    path: 
    classID: 212
    script: {fileID: 0}
  m_SampleRate: 60
  m_WrapMode: 0
  m_Bounds:
    m_Center: {x: 0, y: 0, z: 0}
    m_Extent: {x: 0, y: 0, z: 0}
  m_ClipBindingConstant:
    genericBindings:
    - path: 0
      attribute: 0
      script: {fileID: 0}
      classID: 212
      customType: 23
      isPPtrCurve: 1
    pptrCurveMapping:
    - {fileID: 21300000, guid: a16a0410eb8eb58498e5d3ed72553a3b, type: 3}
    - {fileID: 21300000, guid: ab18c5a6d5c34d34889d23739483c1fa, type: 3}
    - {fileID: 21300000, guid: 0f8ba829b9189354ab6ba9fb92a7641e, type: 3}
    - {fileID: 21300000, guid: ff9061aebabc96f4098e0dbafaaf38aa, type: 3}
    - {fileID: 21300000, guid: 8f2fc35d8df2da3429c1c07316f38e18, type: 3}
    - {fileID: 21300000, guid: 3b5e0b5d3a03eb3448bdbfffb1d99d1c, type: 3}
    - {fileID: 21300000, guid: 64985bb7b9495d34981e32774809ae6b, type: 3}
    - {fileID: 21300000, guid: eed3f81c6cf3c98429e837c9a0c43f52, type: 3}
  m_AnimationClipSettings:
    serializedVersion: 2
    m_StartTime: 0
    m_StopTime: 1.16666663
    m_OrientationOffsetY: 0
    m_Level: 0
    m_CycleOffset: 0
    m_LoopTime: 1
    m_LoopBlend: 0
    m_LoopBlendOrientation: 0
    m_LoopBlendPositionY: 0
    m_LoopBlendPositionXZ: 0
    m_KeepOriginalOrientation: 0
    m_KeepOriginalPositionY: 1
    m_KeepOriginalPositionXZ: 0
    m_HeightFromFeet: 0
    m_Mirror: 0
  m_EditorCurves: []
  m_EulerEditorCurves: []
  m_Events: []
